%YAML 1.1
%TAG !u! tag:unity3d.com,2011:
--- !u!114 &11400000
MonoBehaviour:
  m_ObjectHideFlags: 0
  m_PrefabParentObject: {fileID: 0}
  m_PrefabInternal: {fileID: 0}
  m_GameObject: {fileID: 0}
  m_Enabled: 1
  m_EditorHideFlags: 0
  m_Script: {fileID: 11500000, guid: 531efc82940913b459d691becdba93bb, type: 3}
  m_Name: NullType
  m_EditorClassIdentifier: 
  sprite: {fileID: 0}
  pixelColor: {r: 1, g: 1, b: 1, a: 1}
  corruptRate: 0.5
  height: 4
