%YAML 1.1
%TAG !u! tag:unity3d.com,2011:
--- !u!114 &11400000
MonoBehaviour:
  m_ObjectHideFlags: 0
  m_PrefabParentObject: {fileID: 0}
  m_PrefabInternal: {fileID: 0}
  m_GameObject: {fileID: 0}
  m_Enabled: 1
  m_EditorHideFlags: 0
  m_Script: {fileID: 11500000, guid: 6d830335c3f1edc46bb8eec8599e0ff4, type: 3}
  m_Name: Engine
  m_EditorClassIdentifier: 
  sprite: {fileID: 0}
  pixelColor: {r: 0.64705884, g: 0.11764706, b: 0.13333334, a: 1}
  corruptRate: 2
  height: 2
  interactbleBuilding: {fileID: 1886493459829588, guid: 2a5bbd2b7c0b4164ebd0f370164f1bee,
    type: 2}
